{
  // These tasks will run in order when initializing your CodeSandbox project.
  "setupTasks": [
    {
      "name": "bun i",
      "command": "bun i"
    }
  ],
  // These tasks can be run from CodeSandbox. Running one will open a log in the app.
  "tasks": {
    "Start": {
      "name": "Start",
      "command": "bun run dev",
      "runAtStart": true,
      "preview": {
        "port": 3000
      }
    },
    "Format": {
      "name": "--write",
      "command": "bun x -- --bun prettier --write ."
    },
    "Doppler": {
      "name": "Doppler env",
      "command": "doppler --token $DOPPLER_TOKEN -c dev -p savvy run bun run dev",
      "preview": {
        "port": 3000
      }
    }
  }
}
